{
    "success": true,
    "data": {
        "settings": {
            "view": {
                "type": 2,
                "switch": true
            },
            "popup": {
                "id": "callback-parametric"
            },
            "premisesToShow": 20,
            "groupOptions": 2,
            "hidePrice": {
                "status": false,
                "text": "\u0426\u0435\u043d\u0430 \u043f\u043e \u0437\u0430\u043f\u0440\u043e\u0441\u0443"
            },
            "sort": {
                "default": {
                    "type": "price",
                    "order": "asc"
                },
                "items": {
                    "price": {
                        "asc": "\u0421\u043d\u0430\u0447\u0430\u043b\u0430 \u0434\u0435\u0448\u0435\u0432\u043b\u0435",
                        "desc": "\u0421\u043d\u0430\u0447\u0430\u043b\u0430 \u0434\u043e\u0440\u043e\u0436\u0435"
                    },
                    "area": {
                        "asc": "\u0421\u043d\u0430\u0447\u0430\u043b\u0430 \u0441 \u043c\u0435\u043d\u044c\u0448\u0435\u0439 \u043f\u043b\u043e\u0449\u0430\u0434\u044c\u044e",
                        "desc": "\u0421\u043d\u0430\u0447\u0430\u043b\u0430 \u0441 \u0431\u043e\u043b\u044c\u0448\u0435\u0439 \u043f\u043b\u043e\u0449\u0430\u0434\u044c\u044e"
                    },
                    "rooms": {
                        "asc": "\u0421\u043d\u0430\u0447\u0430\u043b\u0430 \u043c\u0435\u043d\u044c\u0448\u0435 \u043a\u043e\u043c\u043d\u0430\u0442",
                        "desc": "\u0421\u043d\u0430\u0447\u0430\u043b\u0430 \u0431\u043e\u043b\u044c\u0448\u0435 \u043a\u043e\u043c\u043d\u0430\u0442"
                    }
                }
            }
        },
        "filters": [
            {
                "type": "checkbox",
                "category": "blocks",
                "view": "button",
                "label": "\u041a\u043e\u0440\u043f\u0443\u0441",
                "items": [
                    {
                        "id": 1,
                        "value": 1,
                        "name": "1",
                        "title": "1",
                        "checked": false,
                        "disabled": false
                    },
                    {
                        "id": 2,
                        "value": 2,
                        "name": "2",
                        "title": "2",
                        "checked": false,
                        "disabled": false
                    },
                    {
                        "id": 3,
                        "value": 3,
                        "name": "3",
                        "title": "3",
                        "checked": false,
                        "disabled": false
                    },
                    {
                        "id": 4,
                        "value": 4,
                        "name": "4",
                        "title": "4",
                        "checked": false,
                        "disabled": false
                    },
                    {
                        "id": 5,
                        "value": 5,
                        "name": "5",
                        "title": "5",
                        "checked": false,
                        "disabled": false
                    }
                ]
            },
            {
                "type": "checkbox",
                "category": "rooms",
                "view": "block",
                "label": "\u041a\u043e\u043c\u043d\u0430\u0442\u043d\u043e\u0441\u0442\u044c",
                "items": [
                    {
                        "id": 1,
                        "value": 1,
                        "name": "\u0421\u0442\u0443\u0434\u0438\u044f",
                        "title": "\u0421\u0442",
                        "checked": false,
                        "disabled": false
                    },
                    {
                        "id": 2,
                        "value": 2,
                        "name": "\u041e\u0434\u043d\u043e\u043a\u043e\u043c\u043d\u0430\u0442\u043d\u0430\u044f",
                        "title": "1\u043a",
                        "checked": false,
                        "disabled": false
                    },
                    {
                        "id": 3,
                        "value": 3,
                        "name": "\u0414\u0432\u0443\u0445\u043a\u043e\u043c\u043d\u0430\u0442\u043d\u0430\u044f",
                        "title": "2\u043a",
                        "checked": false,
                        "disabled": false
                    },
                    {
                        "id": 4,
                        "value": 4,
                        "name": "\u0422\u0440\u0435\u0445\u043a\u043e\u043c\u043d\u0430\u0442\u043d\u0430\u044f",
                        "title": "3\u043a",
                        "checked": false,
                        "disabled": false
                    },
                    {
                        "id": 5,
                        "value": 5,
                        "name": "\u0427\u0435\u0442\u044b\u0440\u0435\u0445\u043a\u043e\u043c\u043d\u0430\u0442\u043d\u0430\u044f+",
                        "title": "4\u043a+",
                        "checked": false,
                        "disabled": false
                    }
                ]
            },
            {
                "type": "slider",
                "category": "price",
                "label": "\u0421\u0442\u043e\u0438\u043c\u043e\u0441\u0442\u044c, \u043c\u043b\u043d \u20bd",
                "value": [
                    3229000,
                    41717000
                ],
                "min": 3229000,
                "max": 41717000
            },
            {
                "type": "slider",
                "category": "area",
                "label": "\u041f\u043b\u043e\u0449\u0430\u0434\u044c \u043e\u0431\u0449\u0430\u044f, \u043c\u00b2",
                "value": [
                    17,
                    120
                ],
                "min": 17,
                "max": 120
            },
            {
                "type": "slider",
                "category": "floors",
                "label": "\u042d\u0442\u0430\u0436",
                "value": [
                    1,
                    12
                ],
                "min": 1,
                "max": 12
            },
            {
                "type": "checkbox",
                "category": "delivery",
                "view": "button",
                "label": "\u0421\u0440\u043e\u043a \u0441\u0434\u0430\u0447\u0438",
                "items": [
                    {
                        "id": 4,
                        "value": 4,
                        "name": "2 \u043a\u0432. 2022",
                        "title": "2 \u043a\u0432. 2022",
                        "checked": false,
                        "disabled": false
                    },
                    {
                        "id": 3,
                        "value": 3,
                        "name": "2 \u043a\u0432. 2022",
                        "title": "2 \u043a\u0432. 2022",
                        "checked": false,
                        "disabled": false
                    },
                    {
                        "id": 1,
                        "value": 1,
                        "name": "2 \u043a\u0432. 2022",
                        "title": "2 \u043a\u0432. 2022",
                        "checked": false,
                        "disabled": false
                    }
                ]
            },
            {
                "type": "checkbox",
                "category": "options",
                "view": "button",
                "label": "\u041e\u0441\u043e\u0431\u0435\u043d\u043d\u043e\u0441\u0442\u0438",
                "items": [
                    {
                        "id": 1,
                        "value": 1,
                        "name": "\u0411\u043e\u043b\u044c\u0448\u0430\u044f \u0433\u043e\u0441\u0442\u0438\u043d\u0430\u044f",
                        "title": "\u0411\u043e\u043b\u044c\u0448\u0430\u044f \u0433\u043e\u0441\u0442\u0438\u043d\u0430\u044f",
                        "checked": false,
                        "disabled": false
                    },
                    {
                        "id": 2,
                        "value": 2,
                        "name": "\u0411\u043e\u043b\u044c\u0448\u0430\u044f \u043a\u0443\u0445\u043d\u044f",
                        "title": "\u0411\u043e\u043b\u044c\u0448\u0430\u044f \u043a\u0443\u0445\u043d\u044f",
                        "checked": false,
                        "disabled": false
                    },
                    {
                        "id": 3,
                        "value": 3,
                        "name": "\u0414\u0432\u0443\u0441\u0432\u0435\u0442\u043e\u0432\u0430\u044f \u043a\u0432\u0430\u0440\u0442\u0438\u0440\u0430",
                        "title": "\u0414\u0432\u0443\u0441\u0432\u0435\u0442\u043e\u0432\u0430\u044f \u043a\u0432\u0430\u0440\u0442\u0438\u0440\u0430",
                        "checked": false,
                        "disabled": false
                    },
                    {
                        "id": 4,
                        "value": 4,
                        "name": "\u0413\u0430\u0440\u0434\u0435\u0440\u043e\u0431\u043d\u0430\u044f",
                        "title": "\u0413\u0430\u0440\u0434\u0435\u0440\u043e\u0431\u043d\u0430\u044f",
                        "checked": false,
                        "disabled": false
                    },
                    {
                        "id": 5,
                        "value": 5,
                        "name": "\u0415\u0432\u0440\u043e \u043f\u043b\u0430\u043d\u0438\u0440\u043e\u0432\u043a\u0430",
                        "title": "\u0415\u0432\u0440\u043e \u043f\u043b\u0430\u043d\u0438\u0440\u043e\u0432\u043a\u0430",
                        "checked": false,
                        "disabled": false
                    },
                    {
                        "id": 6,
                        "value": 6,
                        "name": "\u041e\u043a\u043d\u043e \u0432 \u0432\u0430\u043d\u043d\u043e\u0439",
                        "title": "\u041e\u043a\u043d\u043e \u0432 \u0432\u0430\u043d\u043d\u043e\u0439",
                        "checked": false,
                        "disabled": false
                    },
                    {
                        "id": 7,
                        "value": 7,
                        "name": "\u041c\u0430\u0441\u0442\u0435\u0440-\u0441\u043f\u0430\u043b\u044c\u043d\u044f",
                        "title": "\u041c\u0430\u0441\u0442\u0435\u0440-\u0441\u043f\u0430\u043b\u044c\u043d\u044f",
                        "checked": false,
                        "disabled": false
                    },
                    {
                        "id": 8,
                        "value": 8,
                        "name": "\u0422\u0435\u0440\u0440\u0430\u0441\u0430",
                        "title": "\u0422\u0435\u0440\u0440\u0430\u0441\u0430",
                        "checked": false,
                        "disabled": false
                    },
                    {
                        "id": 9,
                        "value": 9,
                        "name": "\u0423\u0433\u043b\u043e\u0432\u043e\u0435 \u043e\u0441\u0442\u0435\u043a\u043b\u0435\u043d\u0438\u0435",
                        "title": "\u0423\u0433\u043b\u043e\u0432\u043e\u0435 \u043e\u0441\u0442\u0435\u043a\u043b\u0435\u043d\u0438\u0435",
                        "checked": false,
                        "disabled": false
                    },
                    {
                        "id": 10,
                        "value": 10,
                        "name": "\u041e\u043a\u043d\u043e \u043d\u0430 \u0443\u043b\u0438\u0446\u0443",
                        "title": "\u041e\u043a\u043d\u043e \u043d\u0430 \u0443\u043b\u0438\u0446\u0443",
                        "checked": false,
                        "disabled": false
                    },
                    {
                        "id": 11,
                        "value": 11,
                        "name": "\u041e\u043a\u043d\u0430 \u0432\u043e \u0434\u0432\u043e\u0440",
                        "title": "\u041e\u043a\u043d\u0430 \u0432\u043e \u0434\u0432\u043e\u0440",
                        "checked": false,
                        "disabled": false
                    },
                    {
                        "id": 12,
                        "value": 12,
                        "name": "\u0414\u0432\u0443\u0445\u0443\u0440\u043e\u0432\u043d\u0435\u0432\u0430\u044f \u043a\u0432\u0430\u0440\u0442\u0438\u0440\u0430",
                        "title": "\u0414\u0432\u0443\u0445\u0443\u0440\u043e\u0432\u043d\u0435\u0432\u0430\u044f \u043a\u0432\u0430\u0440\u0442\u0438\u0440\u0430",
                        "checked": false,
                        "disabled": false
                    },
                    {
                        "id": 13,
                        "value": 13,
                        "name": "\u0414\u0432\u0430 \u0441\u0430\u043d\u0443\u0437\u043b\u0430",
                        "title": "\u0414\u0432\u0430 \u0441\u0430\u043d\u0443\u0437\u043b\u0430",
                        "checked": false,
                        "disabled": false
                    },
                    {
                        "id": 14,
                        "value": 14,
                        "name": "\u041c\u0430\u043b\u043e\u044d\u0442\u0430\u0436\u043d\u043e\u0435 \u0441\u0442\u0440\u043e\u0435\u043d\u0438\u0435",
                        "title": "\u041c\u0430\u043b\u043e\u044d\u0442\u0430\u0436\u043d\u043e\u0435 \u0441\u0442\u0440\u043e\u0435\u043d\u0438\u0435",
                        "checked": false,
                        "disabled": false
                    }
                ]
            },
            {
                "type": "toggle",
                "category": "hbooked",
                "view": "toggle",
                "id": 1,
                "title": "\u0421\u043a\u0440\u044b\u0442\u044c \u0437\u0430\u0431\u0440\u043e\u043d\u0438\u0440\u043e\u0432\u0430\u043d\u043d\u044b\u0435",
                "checked": false,
                "disabled": false
            },
            {
                "type": "toggle",
                "category": "action",
                "view": "toggle",
                "id": 1,
                "title": "\u041a\u0432\u0430\u0440\u0442\u0438\u0440\u044b \u0441\u043e \u0441\u043a\u0438\u0434\u043a\u043e\u0439",
                "checked": false,
                "disabled": false
            }
        ],
        "premises": [
            {
                "id": 315,
                "rooms": 1,
                "link": null,
                "description": "ЖК: БЕРЕЗКА, Студия №3",
                "viewType": "popup",
                "title": "\u0421\u0442\u0443\u0434\u0438\u044f \u2116 3",
                "plan": [
                    {
                        "image": "http:\/\/sample-dev.multi.ksdev.ru\/webicons\/flat\/plug.svg",
                        "text": "Описание изображения",
                        "stub": true
                    },{
                        "image": "\/images\/flat\/flat-plan-2.png",
                        "text": "Описание изображения",
                        "stub": false
                    },{
                        "image": "http:\/\/sample-dev.multi.ksdev.ru\/webicons\/flat\/plug.svg",
                        "text": "Описание изображения",
                        "stub": true
                    },{
                        "image": "\/images\/flat\/flat-plan-3.png",
                        "text": "Описание изображения",
                        "stub": false
                    },{
                        "image": "\/images\/flat\/flat-plan-4.png",
                        "text": "Описание изображения",
                        "stub": false
                    },{
                        "image": "http:\/\/sample-dev.multi.ksdev.ru\/webicons\/flat\/plug.svg",
                        "text": "Описание изображения",
                        "stub": true
                    },{
                        "image": "\/images\/flat\/flat-plan-2.png",
                        "text": "Описание изображения",
                        "stub": false
                    }
                ],
                "area": 31.8,
                "price": 3229664,
                "showPrice": true,
                "state": {
                    "available": true,
                    "title": "\u0421\u0432\u043e\u0431\u043e\u0434\u043d\u043e",
                    "additionalTitle": null,
                    "icon": "\/webicons\/flat\/booked.svg"
                },
                "block": "5",
                "section": "1",
                "floor": {
                    "value": "2",
                    "total": 8
                },
                "delivery": {
                    "label": "\u0421\u0440\u043e\u043a \u0441\u0434\u0430\u0447\u0438",
                    "title": "2 \u043a\u0432. 2022"
                },
                "options": [
                    {
                        "id": 3,
                        "title": "\u0414\u0432\u0443\u0441\u0432\u0435\u0442\u043e\u0432\u0430\u044f \u043a\u0432\u0430\u0440\u0442\u0438\u0440\u0430"
                    },
                    {
                        "id": 11,
                        "title": "\u041e\u043a\u043d\u0430 \u0432\u043e \u0434\u0432\u043e\u0440"
                    }
                ]
            },
            {
                "id": 204,
                "rooms": 1,
                "link": null,
                "description": "ЖК: БЕРЕЗКА, Студия №4",
                "viewType": "popup",
                "title": "\u0421\u0442\u0443\u0434\u0438\u044f \u2116 12",
                "plan": [
                    {
                        "image": "http:\/\/sample-dev.multi.ksdev.ru\/webicons\/flat\/plug.svg",
                        "text": "Описание",
                        "stub": true
                    }
                ],
                "area": 17.9,
                "price": 3526612,
                "showPrice": true,
                "state": {
                    "available": true,
                    "title": "\u0421\u0432\u043e\u0431\u043e\u0434\u043d\u043e",
                    "additionalTitle": null,
                    "icon": null
                },
                "block": "2",
                "section": null,
                "floor": {
                    "value": "5",
                    "total": 5
                },
                "delivery": {
                    "label": "\u0421\u0440\u043e\u043a \u0441\u0434\u0430\u0447\u0438",
                    "title": "2 \u043a\u0432. 2022"
                },
                "options": [
                    {
                        "id": 1,
                        "title": "\u0411\u043e\u043b\u044c\u0448\u0430\u044f \u0433\u043e\u0441\u0442\u0438\u043d\u0430\u044f"
                    },
                    {
                        "id": 2,
                        "title": "\u0411\u043e\u043b\u044c\u0448\u0430\u044f \u043a\u0443\u0445\u043d\u044f"
                    },
                    {
                        "id": 3,
                        "title": "\u0414\u0432\u0443\u0441\u0432\u0435\u0442\u043e\u0432\u0430\u044f \u043a\u0432\u0430\u0440\u0442\u0438\u0440\u0430"
                    },
                    {
                        "id": 5,
                        "title": "\u0415\u0432\u0440\u043e \u043f\u043b\u0430\u043d\u0438\u0440\u043e\u0432\u043a\u0430"
                    },
                    {
                        "id": 6,
                        "title": "\u041e\u043a\u043d\u043e \u0432 \u0432\u0430\u043d\u043d\u043e\u0439"
                    },
                    {
                        "id": 7,
                        "title": "\u041c\u0430\u0441\u0442\u0435\u0440-\u0441\u043f\u0430\u043b\u044c\u043d\u044f"
                    },
                    {
                        "id": 9,
                        "title": "\u0423\u0433\u043b\u043e\u0432\u043e\u0435 \u043e\u0441\u0442\u0435\u043a\u043b\u0435\u043d\u0438\u0435"
                    },
                    {
                        "id": 10,
                        "title": "\u041e\u043a\u043d\u043e \u043d\u0430 \u0443\u043b\u0438\u0446\u0443"
                    },
                    {
                        "id": 11,
                        "title": "\u041e\u043a\u043d\u0430 \u0432\u043e \u0434\u0432\u043e\u0440"
                    },
                    {
                        "id": 12,
                        "title": "\u0414\u0432\u0443\u0445\u0443\u0440\u043e\u0432\u043d\u0435\u0432\u0430\u044f \u043a\u0432\u0430\u0440\u0442\u0438\u0440\u0430"
                    },
                    {
                        "id": 13,
                        "title": "\u0414\u0432\u0430 \u0441\u0430\u043d\u0443\u0437\u043b\u0430"
                    },
                    {
                        "id": 14,
                        "title": "\u041c\u0430\u043b\u043e\u044d\u0442\u0430\u0436\u043d\u043e\u0435 \u0441\u0442\u0440\u043e\u0435\u043d\u0438\u0435"
                    }
                ],
                "actionPrice": {
                    "value": 35623,
                    "base": 3562235
                }
            }
        ],
        "pagination": {
            "type": "both",
            "page": 1,
            "pages": 6,
            "count": 11,
            "limit": 2
        }
    },
    "messages": []
}
