{
    "success": true,
    "data": {
        "premises": [
            {
                "id": 149,
                "rooms": 1,
                "link": "\/flat-149",
                "viewType": "card",
                "title": "\u0421\u0442\u0443\u0434\u0438\u044f \u2116 5",
                "plan": [
                    {
                        "image": "\/storage\/3946\/4480\/394612783e48a2f3b5a5914bcd57744e21134c82.jpg",
                        "text": null,
                        "stub": true
                    }
                ],
                "area": 29.5,
                "price": 3721349,
                "showPrice": true,
                "state": {
                    "available": true,
                    "title": "\u0421\u0432\u043e\u0431\u043e\u0434\u043d\u043e",
                    "additionalTitle": null,
                    "icon": null
                },
                "block": "2",
                "section": null,
                "floor": {
                    "value": "1",
                    "total": 5
                },
                "delivery": {
                    "label": "\u0421\u0440\u043e\u043a \u0441\u0434\u0430\u0447\u0438",
                    "title": "2 \u043a\u0432. 2022"
                },
                "options": [
                    {
                        "id": 1,
                        "title": "\u0411\u043e\u043b\u044c\u0448\u0430\u044f \u0433\u043e\u0441\u0442\u0438\u043d\u0430\u044f"
                    },
                    {
                        "id": 3,
                        "title": "\u0414\u0432\u0443\u0441\u0432\u0435\u0442\u043e\u0432\u0430\u044f \u043a\u0432\u0430\u0440\u0442\u0438\u0440\u0430"
                    },
                    {
                        "id": 9,
                        "title": "\u0423\u0433\u043b\u043e\u0432\u043e\u0435 \u043e\u0441\u0442\u0435\u043a\u043b\u0435\u043d\u0438\u0435"
                    },
                    {
                        "id": 10,
                        "title": "\u041e\u043a\u043d\u043e \u043d\u0430 \u0443\u043b\u0438\u0446\u0443"
                    },
                    {
                        "id": 11,
                        "title": "\u041e\u043a\u043d\u0430 \u0432\u043e \u0434\u0432\u043e\u0440"
                    },
                    {
                        "id": 13,
                        "title": "\u0414\u0432\u0430 \u0441\u0430\u043d\u0443\u0437\u043b\u0430"
                    }
                ],
                "actionPrice": {
                    "value": 115094,
                    "base": 3836443
                }
            },
            {
                "id": 195,
                "rooms": 1,
                "link": "\/flat-195",
                "viewType": "card",
                "title": "\u0421\u0442\u0443\u0434\u0438\u044f \u2116 3",
                "plan": {
                    "src": "http:\/\/sample-dev.multi.ksdev.ru\/webicons\/flat\/plug.svg",
                    "default": false
                },
                "area": 30.9,
                "price": 3893143,
                "showPrice": true,
                "state": {
                    "available": true,
                    "title": "\u0421\u0432\u043e\u0431\u043e\u0434\u043d\u043e",
                    "additionalTitle": null,
                    "icon": null
                },
                "block": "2",
                "section": null,
                "floor": {
                    "value": "5",
                    "total": 5
                },
                "delivery": {
                    "label": "\u0421\u0440\u043e\u043a \u0441\u0434\u0430\u0447\u0438",
                    "title": "2 \u043a\u0432. 2022"
                },
                "options": [
                    {
                        "id": 2,
                        "title": "\u0411\u043e\u043b\u044c\u0448\u0430\u044f \u043a\u0443\u0445\u043d\u044f"
                    },
                    {
                        "id": 5,
                        "title": "\u0415\u0432\u0440\u043e \u043f\u043b\u0430\u043d\u0438\u0440\u043e\u0432\u043a\u0430"
                    },
                    {
                        "id": 6,
                        "title": "\u041e\u043a\u043d\u043e \u0432 \u0432\u0430\u043d\u043d\u043e\u0439"
                    },
                    {
                        "id": 7,
                        "title": "\u041c\u0430\u0441\u0442\u0435\u0440-\u0441\u043f\u0430\u043b\u044c\u043d\u044f"
                    },
                    {
                        "id": 8,
                        "title": "\u0422\u0435\u0440\u0440\u0430\u0441\u0430"
                    },
                    {
                        "id": 13,
                        "title": "\u0414\u0432\u0430 \u0441\u0430\u043d\u0443\u0437\u043b\u0430"
                    },
                    {
                        "id": 14,
                        "title": "\u041c\u0430\u043b\u043e\u044d\u0442\u0430\u0436\u043d\u043e\u0435 \u0441\u0442\u0440\u043e\u0435\u043d\u0438\u0435"
                    }
                ]
            }
        ],
        "pagination": {
            "type": "both",
            "page": 2,
            "pages": 6,
            "count": 11,
            "limit": 2
        }
    },
    "messages": []
}
